{
  "value": [
    {
      "classname": "ebookintclass1",
      "id": "21238b5d-1605-4711-9755-67bfdb17b4b9",
      "refId": "21238b5d-1605-4711-9755-67bfdb17b4b9",
      "localId": "21238b5d16054711975567bfdb17b4b9",
      "students": [
        {
          "firstName": "EBOOKINTSTUD1",
          "middleName" : "J",
          "id": "c5f57a3a-7806-456b-bf3e-5ca194f20358",
          "refId": "c5f57a3a-7806-456b-bf3e-5ca194f20358",
          "platformId" : "c5f57a3a7806456bbf3e5ca194f20358",
          "lastName" : "123"
        },
        {
          "firstName": "EBOOKINTSTUD2",
          "id": "5006ad38-c9c9-41a3-b69e-f3ad9d5aea60",
          "refId": "5006ad38-c9c9-41a3-b69e-f3ad9d5aea60",
          "platformId": "5006ad38c9c941a3b69ef3ad9d5aea60"
        },
        {
          "firstName": "EBOOKINTSTUD3",
          "id": "8c2d0840-c5f2-468f-bbe5-060c4f715f45",
          "refId": "8c2d0840-c5f2-468f-bbe5-060c4f715f45",
          "platformId": "8c2d0840c5f2468fbbe5060c4f715f45"
        },
        {
          "firstName": "EBOOKINTSTUD4",
          "id": "218ba25f-6464-4c5b-b230-197b758fca06",
          "refId": "218ba25f-6464-4c5b-b230-197b758fca06",
          "platformId": "218ba25f64644c5bb230197b758fca06"
        },
        {
          "firstName": "EBOOKINTSTUD5",
          "id": "f31a4b33-296f-4a0f-8d8e-a9e21c543367",
          "refId": "f31a4b33-296f-4a0f-8d8e-a9e21c543367",
		  "platformId" : "f31a4b33296f4a0f8d8ea9e21c543367"
        }
      ]
    },
    {
      "classname": "ebookintclass2",
      "id": "38759983-e7d7-44c9-92ea-7402132f5790",
      "refId": "38759983-e7d7-44c9-92ea-7402132f5790",
      "localId": "38759983e7d744c992ea7402132f5790",
      "students": [
        {
          "firstName": "EBOOKINTSTUD6",
          "id": "4c464481-d37d-4d01-9822-787963889106",
          "refId": "4c464481-d37d-4d01-9822-787963889106",
		  "platformId": "4c464481d37d4d019822787963889106"
        },
        {
          "firstName": "EBOOKINTSTUD7",
          "id": "f3e42bbc-a0bc-4688-94c7-365c2d3506b1",
          "refId": "f3e42bbc-a0bc-4688-94c7-365c2d3506b1",
          "platformId": "f3e42bbca0bc468894c7365c2d3506b1"
        },
        {
          "firstName": "EBOOKINTSTUD8",
          "id": "6ae5ad25-b9a3-43e1-afe4-1eaf5ab436c9",
          "refId": "6ae5ad25-b9a3-43e1-afe4-1eaf5ab436c9",
          "platformId": "6ae5ad25b9a343e1afe41eaf5ab436c9"
        },
        {
          "firstName": "EBOOKINTSTUD9",
          "id": "a35f4428-2443-42cb-b93c-4f236f58dd23",
          "refId": "a35f4428-2443-42cb-b93c-4f236f58dd23",
          "platformId": "a35f4428244342cbb93c4f236f58dd23"
        },
        {
          "firstName": "EBOOKINTSTUD10",
          "id": "b37459fb-693a-4930-baae-ed0ee1660aa4",
          "refId": "b37459fb-693a-4930-baae-ed0ee1660aa4",
          "platformId": "b37459fb693a4930baaeed0ee1660aa4"
        }
      ]
    }
  ]
}